/*马克思曾经做过这样一道趣味数学题：有30个人在一家小饭馆里用餐，其中有男人、
女人和小孩。每个男人花3先令，每个女人花了2先令，每个小孩花1先令，一共花去50
先令。问男人、女人以及小孩各有几个人。*/
for(var  a=0;a<=16;a++)
{
 for(var b=0;b<=25;b++){
    var c=30-a-b;
	if(3*a+2*b+c===50)
document.write(a+"个男人、"+b+"个女人和"+c+"个小孩<br>");}
}